{
        "viewId":"ThumbView",
                "widgets":{
                        "ThumbRoller": ["MildenhallRollerContainer", "AudioPlayer_TV_ThumbRoller_prop", 0, 0, 1],
                        "SortRoller": ["MildenhallRollerContainer","AudioPlayer_TV_SortRoller_prop", 660, 0, 2],
                        "ThumbViewsDrawer":["MildenhallViewsDrawer","AudioPlayer_TV_ViewsDrawer_prop", 660, 51, 3],
			"Overlay":["MildenhallOverlay", "AudioPlayer_TV_Overlay_prop", 0, 0, 4],
                        "ThumbContextDrawer":["MildenhallContextDrawer","AudioPlayer_TV_ContextDrawer_prop", 660, 394, 5]
                }
}

